// =============================================================================
// Scilab ( https://www.scilab.org/ ) - This file is part of Scilab
// Copyright (C) 2020 - Stéphane MOTTELET
//
//  This file is distributed under the same license as the Scilab package.
// =============================================================================
//
// <-- CLI SHELL MODE -->
//
// <-- Non-regression test for bug 16280 -->
//
// <-- GitLab URL -->
// https://gitlab.com/scilab/scilab/-/issues/15280
//
// <-- Short Description -->
// mode()=-1 in overloads prevents  choosing compact/not compact display mode
r = [1/%s %s/(1+%s)^2];
r = [r ; 1+r];
for i=-1:2
    mode(i)
    mprintf("mode: %d\n", mode())
    mprintf("-------------------\n")
    r
    mprintf("-------------------\n")
end
mode: -1
-------------------
-------------------
mode: 0
-------------------
 r  = 
    1        s      
    -    ---------  
    s    1 +2s +s²  
   1 +s  1 +3s +s²  
   ----  ---------  
    s    1 +2s +s²  
-------------------
mode: 1
-------------------
 r  = 
    1        s      
    -    ---------  
    s    1 +2s +s²  
   1 +s  1 +3s +s²  
   ----  ---------  
    s    1 +2s +s²  
-------------------
mode: 2
-------------------
 r  = 
    1        s      
    -    ---------  
    s    1 +2s +s²  
                    
   1 +s  1 +3s +s²  
   ----  ---------  
    s    1 +2s +s²  
-------------------
